<svg xmlns="http://www.w3.org/2000/svg" width="38" height="24" viewBox="0 0 38 24">
  <g fill="#FFF" transform="translate(0 -1)">
    <path d="M15,1 C9.59860705,1.54911149 5.59860705,3.21577816 3,6 C1,8.14285714 -1,12 1,14 C3,16 6.09108104,15.2368533 8.5,13 C11.5607207,10.1579022 13.7273874,6.15790221 15,1 Z"/>
    <path d="M26.264442,6.98252531 C20.5876216,9.05889535 16.4499079,11.4891913 13.8513008,14.2734131 C11.8513008,16.4162703 9.85130082,20.2734131 11.8513008,22.2734131 C13.8513008,24.2734131 16.9423819,23.5102664 19.3513008,21.2734131 C22.0362663,18.0239028 24.3406467,13.2602735 26.264442,6.98252531 Z" transform="rotate(-41 18.644 15.206)"/>
    <path d="M35.439589,0.178252592 C32.2888746,1.69529326 29.414214,3.84592451 26.8156069,6.63014635 C24.8156069,8.77300349 22.9105109,14.0252463 24.9105109,16.0252463 C26.9105109,18.0252463 29.6869365,17.3060088 31.4445851,15.2840653 C32.4659549,14.1091137 34.0704022,10.3430779 34.6123639,8.68211634 C35.2273311,6.79741325 35.5030728,3.962792 35.439589,0.178252592 Z" transform="rotate(-75 29.755 8.695)"/>
  </g>
</svg>
