<svg xmlns="http://www.w3.org/2000/svg" width="227" height="76" viewBox="0 0 227 76">
  <path fill="#BD2525" d="M20,23 C19.423938,20.9837829 24.2196256,19.9190015 25,22 C28,30 42,26 32,11 C27,4 17.5326504,4.23367481 12,7 C8.93399018,8.53300491 5.85508543,13.6578468 5,18 C4.18173378,22.155184 5.51100164,25.5330049 6,27 C7.28432827,30.8529848 10.1924456,36.581881 16,42 C22.3423075,47.9170132 32.2517774,53.4339804 50,55 C65,56 88,47 95,44 C102,41 116.242496,35.4915964 124,37 C133,38 137,42 140,44 C167,46 185,55 198,58 C205.361548,59.6988189 210.052055,61.4431506 215,60 C219.947945,58.5568494 222,55.566426 222,51 C222,47 221,45 219,43 C216,40 212,38.8077513 210,39 C206.266058,39.3589229 206.266058,42.0255895 210,47 C209.333333,47 208.333333,46.3333333 207,45 C204.304971,42.3049711 205,39 208,38 C212.486982,36.5043392 216,38 219,40 C221.109542,41.4063611 223.343925,43.3502803 225,46 C226.872067,48.9953071 226.803922,52.9901942 226,55 C224,60 214,66 201,62 C188,58 192.021723,58.7742137 189,58 C178.421479,55.2896136 167,50 156,48 C151.290905,47.143801 146.624239,46.8104676 142,47 C142.666667,51.6666667 141.333333,55 138,57 C134,59 127,57 127,53 C127,48 131,45 138,45 C135.671622,41.3134012 125.181661,38.9775423 120,39 C111.192504,39.0381724 101.923629,43.3184447 98,45 C91,48 75,55 69,56 C64.6644369,57.7342252 47.5221562,57.9564537 39.1523267,56.6880897 C37.8696275,56.4937094 25,53 19,53 C15,53 12.633886,54.9576425 11,57 C8,64 10.8248614,68.868646 15,72 C19,74 26,69 23,66 C20,63 20,68 18,68 C17,68 16,67 16,66 C16,63.799265 18.4501672,60.5011213 22,61 C23.8873996,61.2652473 26,63 27,65 C28,67 26,75 18,75.5 C12.872541,75.8204662 9,74 7,71 C2,63 7.27482257,55.0438831 10,53 C12.6666667,51 16.6666667,50.3333333 22,51 C18.0258992,48.6787635 15.3592325,47.0120969 14,46 C10.1814538,43.1566758 8.41995424,40.8321009 7,39 C0.93484577,31.1744138 -0.445601841,22.7098765 1,15 C1.64869222,11.5403081 5,5 13,2 C18.7196648,-0.144874305 24.6902861,0.345143052 30,3 C37.6933771,6.84668854 44.310404,19.689596 36,28 C33,31 22,30 20,23 Z M133,48 C130.257955,49.5537773 129.593335,53.8277793 131,55 C132.593335,56.3277793 137.004559,56.9908814 139,53 C140,51 140,48 139,47 C138.300053,46.3000528 136,46.3000528 133,48 Z"/>
</svg>
